{
  "project_info": {
    "project_number": "1011664112933",
    "firebase_url": "https://chat-b137f.firebaseio.com",
    "project_id": "chat-b137f",
    "storage_bucket": "chat-b137f.appspot.com"
  },
  "client": [
    {
      "client_info": {
        "mobilesdk_app_id": "1:1011664112933:android:740c4e7657d797a0",
        "android_client_info": {
          "package_name": "apps.elkafrawyel.com.chat"
        }
      },
      "oauth_client": [
        {
          "client_id": "1011664112933-15nm5fa65ado195dfd08dm8rvde87upl.apps.googleusercontent.com",
          "client_type": 1,
          "android_info": {
            "package_name": "apps.elkafrawyel.com.chat",
            "certificate_hash": "687f6d9db5646ddc644a9e4dafce5b0346689cde"
          }
        },
        {
          "client_id": "1011664112933-op0digvm5d94fc2mpn7p3f3nle6q34ge.apps.googleusercontent.com",
          "client_type": 3
        }
      ],
      "api_key": [
        {
          "current_key": "AIzaSyBNVC6oR2_59GXn0Z-pCq2CfuT3vYO__O4"
        }
      ],
      "services": {
        "analytics_service": {
          "status": 1
        },
        "appinvite_service": {
          "status": 2,
          "other_platform_oauth_client": [
            {
              "client_id": "1011664112933-op0digvm5d94fc2mpn7p3f3nle6q34ge.apps.googleusercontent.com",
              "client_type": 3
            }
          ]
        },
        "ads_service": {
          "status": 2
        }
      }
    }
  ],
  "configuration_version": "1"
}